\relax 
\providecommand\hyper@newdestlabel[2]{}
\catcode `"\active 
\providecommand\HyperFirstAtBeginDocument{\AtBeginDocument}
\HyperFirstAtBeginDocument{\ifx\hyper@anchor\@undefined
\global\let\oldcontentsline\contentsline
\gdef\contentsline#1#2#3#4{\oldcontentsline{#1}{#2}{#3}}
\global\let\oldnewlabel\newlabel
\gdef\newlabel#1#2{\newlabelxx{#1}#2}
\gdef\newlabelxx#1#2#3#4#5#6{\oldnewlabel{#1}{{#2}{#3}}}
\AtEndDocument{\ifx\hyper@anchor\@undefined
\let\contentsline\oldcontentsline
\let\newlabel\oldnewlabel
\fi}
\fi}
\global\let\hyper@last\relax 
\gdef\HyperFirstAtBeginDocument#1{#1}
\providecommand\HyField@AuxAddToFields[1]{}
\providecommand\HyField@AuxAddToCoFields[2]{}
\select@language{polish}
\@writefile{toc}{\select@language{polish}}
\@writefile{lof}{\select@language{polish}}
\@writefile{lot}{\select@language{polish}}
\providecommand*\caption@xref[2]{\@setref\relax\@undefined{#1}}
\newlabel{fig.communication_data.request}{{1a}{1}{Instrukcja żądania.\relax }{figure.caption.4}{}}
\newlabel{sub@fig.communication_data.request}{{a}{1}{Instrukcja żądania.\relax }{figure.caption.4}{}}
\newlabel{fig.communication_data.data}{{1b}{1}{Instrukcja danych.\relax }{figure.caption.4}{}}
\newlabel{sub@fig.communication_data.data}{{b}{1}{Instrukcja danych.\relax }{figure.caption.4}{}}
\@writefile{lof}{\contentsline {figure}{\numberline {1}{\ignorespaces Organizacja danych w instrukcji.\relax }}{1}{figure.caption.4}}
\newlabel{fig.communication_data}{{1}{1}{Organizacja danych w instrukcji.\relax }{figure.caption.4}{}}
\newlabel{fig.activities.main}{{2a}{1}{\textit {MainActivity}.\relax }{figure.caption.7}{}}
\newlabel{sub@fig.activities.main}{{a}{1}{\textit {MainActivity}.\relax }{figure.caption.7}{}}
\newlabel{fig.activities.scan}{{2b}{1}{\textit {ScanActivity}.\relax }{figure.caption.7}{}}
\newlabel{sub@fig.activities.scan}{{b}{1}{\textit {ScanActivity}.\relax }{figure.caption.7}{}}
\newlabel{fig.activities.joystick}{{2c}{1}{\textit {ControlPanelActivity}.\relax }{figure.caption.7}{}}
\newlabel{sub@fig.activities.joystick}{{c}{1}{\textit {ControlPanelActivity}.\relax }{figure.caption.7}{}}
\newlabel{fig.activities.laser}{{2d}{1}{\textit {DataVisualizationActivity}.\relax }{figure.caption.7}{}}
\newlabel{sub@fig.activities.laser}{{d}{1}{\textit {DataVisualizationActivity}.\relax }{figure.caption.7}{}}
\@writefile{lof}{\contentsline {figure}{\numberline {2}{\ignorespaces Wygl\IeC {\k a}d ekran\IeC {\'o}w u\IeC {\.z}ytkownika w aplikacji klienckiej.\relax }}{1}{figure.caption.7}}
\newlabel{fig.activities}{{2}{1}{Wygląd ekranów użytkownika w aplikacji klienckiej.\relax }{figure.caption.7}{}}
