\relax 
\providecommand\hyper@newdestlabel[2]{}
\catcode `"\active 
\providecommand\HyperFirstAtBeginDocument{\AtBeginDocument}
\HyperFirstAtBeginDocument{\ifx\hyper@anchor\@undefined
\global\let\oldcontentsline\contentsline
\gdef\contentsline#1#2#3#4{\oldcontentsline{#1}{#2}{#3}}
\global\let\oldnewlabel\newlabel
\gdef\newlabel#1#2{\newlabelxx{#1}#2}
\gdef\newlabelxx#1#2#3#4#5#6{\oldnewlabel{#1}{{#2}{#3}}}
\AtEndDocument{\ifx\hyper@anchor\@undefined
\let\contentsline\oldcontentsline
\let\newlabel\oldnewlabel
\fi}
\fi}
\global\let\hyper@last\relax 
\gdef\HyperFirstAtBeginDocument#1{#1}
\providecommand\HyField@AuxAddToFields[1]{}
\providecommand\HyField@AuxAddToCoFields[2]{}
\select@language{polish}
\@writefile{toc}{\select@language{polish}}
\@writefile{lof}{\select@language{polish}}
\@writefile{lot}{\select@language{polish}}
\@writefile{toc}{\contentsline {chapter}{Spis tre\IeC {\'s}ci}{11}{section*.1}}
\@writefile{toc}{\contentsline {chapter}{\numberline {1}Wst\IeC {\k e}p}{13}{chapter.1}}
\@writefile{lof}{\addvspace {10\p@ }}
\@writefile{lot}{\addvspace {10\p@ }}
\newlabel{cht.wstep}{{1}{13}{Wstęp}{chapter.1}{}}
\citation{os_market_share}
\citation{os_market_share}
\citation{os_market_share}
\@writefile{lof}{\contentsline {figure}{\numberline {1.1}{\ignorespaces Udzia\IeC {\l } mobilnych system\IeC {\'o}w operacyjnych w latach 2009-2016 \cite  {os_market_share}\relax }}{14}{figure.caption.3}}
\@writefile{toc}{\contentsline {chapter}{\numberline {2}Wyb\IeC {\'o}r medium komunikacyjnego}{17}{chapter.2}}
\@writefile{lof}{\addvspace {10\p@ }}
\@writefile{lot}{\addvspace {10\p@ }}
\newlabel{cht.wybor_medium}{{2}{17}{Wybór medium komunikacyjnego}{chapter.2}{}}
\@writefile{toc}{\contentsline {section}{\numberline {2.1}Dost\IeC {\k e}pne standardy komunikacji bezprzewodowej}{17}{section.2.1}}
\newlabel{sec.wybor_medium.dostepne_standardy}{{2.1}{17}{Dostępne standardy komunikacji bezprzewodowej}{section.2.1}{}}
\@writefile{toc}{\contentsline {section}{\numberline {2.2}Wyb\IeC {\'o}r technologii Bluetooth}{18}{section.2.2}}
\newlabel{sec.wybor_medium.wybor_bluetooth}{{2.2}{18}{Wybór technologii Bluetooth}{section.2.2}{}}
\@writefile{toc}{\contentsline {subsection}{\numberline {2.2.1}Wykorzystanie Bluetooth Low Energy}{18}{subsection.2.2.1}}
\newlabel{subsec.wybor_medium.wybor_bluetooth.ble}{{2.2.1}{18}{Wykorzystanie Bluetooth Low Energy}{subsection.2.2.1}{}}
\@writefile{toc}{\contentsline {subsection}{\numberline {2.2.2}Wykorzystanie klasycznego Bluetooth'a}{19}{subsection.2.2.2}}
\newlabel{subsec.wybor_medium.wybor_bluetooth.bt}{{2.2.2}{19}{Wykorzystanie klasycznego Bluetooth'a}{subsection.2.2.2}{}}
\@writefile{toc}{\contentsline {section}{\numberline {2.3}Opis przesy\IeC {\l }anych danych}{19}{section.2.3}}
\newlabel{sec.wybor_medium.przesylane_dane}{{2.3}{19}{Opis przesyłanych danych}{section.2.3}{}}
\providecommand*\caption@xref[2]{\@setref\relax\@undefined{#1}}
\newlabel{fig.communication_data.request}{{2.1a}{20}{Instrukcja żądania.\relax }{figure.caption.5}{}}
\newlabel{sub@fig.communication_data.request}{{a}{20}{Instrukcja żądania.\relax }{figure.caption.5}{}}
\newlabel{fig.communication_data.data}{{2.1b}{20}{Instrukcja danych.\relax }{figure.caption.5}{}}
\newlabel{sub@fig.communication_data.data}{{b}{20}{Instrukcja danych.\relax }{figure.caption.5}{}}
\@writefile{lof}{\contentsline {figure}{\numberline {2.1}{\ignorespaces Organizacja danych w instrukcji.\relax }}{20}{figure.caption.5}}
\newlabel{fig.communication_data}{{2.1}{20}{Organizacja danych w instrukcji.\relax }{figure.caption.5}{}}
\@writefile{toc}{\contentsline {subsection}{\numberline {2.3.1}Instrukcje danych}{20}{subsection.2.3.1}}
\newlabel{subsec.wybor_medium.przesylane_dane.instrukcje_danych}{{2.3.1}{20}{Instrukcje danych}{subsection.2.3.1}{}}
\@writefile{toc}{\contentsline {subsection}{\numberline {2.3.2}Instrukcje \IeC {\.z}\IeC {\k a}da\IeC {\'n}}{23}{subsection.2.3.2}}
\newlabel{subsec.wybor_medium.przesylane_dane.instrukcje_zadan}{{2.3.2}{23}{Instrukcje żądań}{subsection.2.3.2}{}}
\citation{ros_introduction}
\@writefile{toc}{\contentsline {chapter}{\numberline {3}Projekt aplikacji typu serwer}{25}{chapter.3}}
\@writefile{lof}{\addvspace {10\p@ }}
\@writefile{lot}{\addvspace {10\p@ }}
\newlabel{cht.aplikacja_serwerowa}{{3}{25}{Projekt aplikacji typu serwer}{chapter.3}{}}
\@writefile{toc}{\contentsline {section}{\numberline {3.1}ROS -- Robots Operating System}{25}{section.3.1}}
\newlabel{sec.aplikacja_serwerowa.ros}{{3.1}{25}{ROS -- Robots Operating System}{section.3.1}{}}
\@writefile{toc}{\contentsline {section}{\numberline {3.2}Konfiguracja \IeC {\'s}rodowiska programistycznego}{26}{section.3.2}}
\newlabel{sec.aplikacja_serwerowa.konfiguracja}{{3.2}{26}{Konfiguracja środowiska programistycznego}{section.3.2}{}}
\@writefile{toc}{\contentsline {section}{\numberline {3.3}Aplikacja typu serwer}{26}{section.3.3}}
\newlabel{sec.aplikacja_serwerowa.aplikacja}{{3.3}{26}{Aplikacja typu serwer}{section.3.3}{}}
\@writefile{toc}{\contentsline {subsection}{\numberline {3.3.1}Informacje wst\IeC {\k e}pne}{26}{subsection.3.3.1}}
\newlabel{subsec.aplikacja_serwerowa.aplikacja.wstep}{{3.3.1}{26}{Informacje wstępne}{subsection.3.3.1}{}}
\@writefile{toc}{\contentsline {subsection}{\numberline {3.3.2}Dane konfiguracyjne robota mobilnego}{27}{subsection.3.3.2}}
\newlabel{subsec.aplikacja_serwerowa.aplikacja.xml}{{3.3.2}{27}{Dane konfiguracyjne robota mobilnego}{subsection.3.3.2}{}}
\@writefile{toc}{\contentsline {subsection}{\numberline {3.3.3}Om\IeC {\'o}wienie funkcjonowania programu}{29}{subsection.3.3.3}}
\newlabel{subsec.aplikacja_serwerowa.aplikacja.funkcjonowanie}{{3.3.3}{29}{Omówienie funkcjonowania programu}{subsection.3.3.3}{}}
\citation{android_versions}
\citation{android_versions}
\citation{android_versions}
\@writefile{toc}{\contentsline {chapter}{\numberline {4}\textit  {BtClient} -- aplikacja typu klient}{35}{chapter.4}}
\@writefile{lof}{\addvspace {10\p@ }}
\@writefile{lot}{\addvspace {10\p@ }}
\newlabel{cht.aplikacja_kliencka}{{4}{35}{\textit {BtClient} -- aplikacja typu klient}{chapter.4}{}}
\@writefile{lof}{\contentsline {figure}{\numberline {4.1}{\ignorespaces Udzia\IeC {\l } poszczeg\IeC {\'o}lnych wersji systemu Android \cite  {android_versions}\relax }}{35}{figure.caption.16}}
\@writefile{toc}{\contentsline {section}{\numberline {4.1}Projekt ekran\IeC {\'o}w u\IeC {\.z}ytkownika}{35}{section.4.1}}
\newlabel{sec.aplikacja_kliencka.ekrany}{{4.1}{35}{Projekt ekranów użytkownika}{section.4.1}{}}
\citation{android_6_bt_changes}
\@writefile{toc}{\contentsline {subsection}{\numberline {4.1.1}\textit  {MainActivity}}{36}{subsection.4.1.1}}
\newlabel{subsec.aplikacja_kliencka.ekrany.main}{{4.1.1}{36}{\textit {MainActivity}}{subsection.4.1.1}{}}
\newlabel{fig.main_activity.enable_bluetooth}{{4.2a}{37}{Prośba o włączenie funkcji Bluetooth.\relax }{figure.caption.17}{}}
\newlabel{sub@fig.main_activity.enable_bluetooth}{{a}{37}{Prośba o włączenie funkcji Bluetooth.\relax }{figure.caption.17}{}}
\newlabel{fig.main_activity.localization_request}{{4.2b}{37}{Prośba o przyznanie zezwolenia systemowego.\relax }{figure.caption.17}{}}
\newlabel{sub@fig.main_activity.localization_request}{{b}{37}{Prośba o przyznanie zezwolenia systemowego.\relax }{figure.caption.17}{}}
\newlabel{fig.main_activity.main}{{4.2c}{37}{Wygląd aktywności \textit {MainActivity}.\relax }{figure.caption.17}{}}
\newlabel{sub@fig.main_activity.main}{{c}{37}{Wygląd aktywności \textit {MainActivity}.\relax }{figure.caption.17}{}}
\@writefile{lof}{\contentsline {figure}{\numberline {4.2}{\ignorespaces Wygl\IeC {\k a}d aktywno\IeC {\'s}ci \textit  {MainActivity} w r\IeC {\'o}\IeC {\.z}nych fazach uruchamiania aplikacji.\relax }}{37}{figure.caption.17}}
\newlabel{fig.main_activity}{{4.2}{37}{Wygląd aktywności \textit {MainActivity} w różnych fazach uruchamiania aplikacji.\relax }{figure.caption.17}{}}
\@writefile{toc}{\contentsline {subsection}{\numberline {4.1.2}\textit  {ScanActivity}}{37}{subsection.4.1.2}}
\newlabel{subsec.aplikacja_kliencka.ekrany.scan}{{4.1.2}{37}{\textit {ScanActivity}}{subsection.4.1.2}{}}
\newlabel{fig.scan_activity.device_found}{{4.3a}{38}{Znaleziono nowe urządzenie Bluetooth.\relax }{figure.caption.18}{}}
\newlabel{sub@fig.scan_activity.device_found}{{a}{38}{Znaleziono nowe urządzenie Bluetooth.\relax }{figure.caption.18}{}}
\newlabel{fig.scan_activity.device_not_found}{{4.3b}{38}{Nie znaleziono urządzeń Bluetooth.\relax }{figure.caption.18}{}}
\newlabel{sub@fig.scan_activity.device_not_found}{{b}{38}{Nie znaleziono urządzeń Bluetooth.\relax }{figure.caption.18}{}}
\@writefile{lof}{\contentsline {figure}{\numberline {4.3}{\ignorespaces Wygl\IeC {\k a}d aktywno\IeC {\'s}ci \textit  {ScanActivity} -- przyk\IeC {\l }adowe wyszukiwania urz\IeC {\k a}dze\IeC {\'n} Bluetooth.\relax }}{38}{figure.caption.18}}
\newlabel{fig.scan_activity}{{4.3}{38}{Wygląd aktywności \textit {ScanActivity} -- przykładowe wyszukiwania urządzeń Bluetooth.\relax }{figure.caption.18}{}}
\@writefile{toc}{\contentsline {subsection}{\numberline {4.1.3}\textit  {ControlPanelActivity}}{38}{subsection.4.1.3}}
\newlabel{subsec.aplikacja_kliencka.ekrany.control}{{4.1.3}{38}{\textit {ControlPanelActivity}}{subsection.4.1.3}{}}
\newlabel{fig.control_panel_activity.not_expand}{{4.4a}{39}{Przedstawienie ogólnych informacji o urządzeniu.\relax }{figure.caption.19}{}}
\newlabel{sub@fig.control_panel_activity.not_expand}{{a}{39}{Przedstawienie ogólnych informacji o urządzeniu.\relax }{figure.caption.19}{}}
\newlabel{fig.control_panel_activity.expand}{{4.4b}{39}{Przedstawienie ogólnych informacji o urządzeniu z~listą rozwijaną.\relax }{figure.caption.19}{}}
\newlabel{sub@fig.control_panel_activity.expand}{{b}{39}{Przedstawienie ogólnych informacji o urządzeniu z~listą rozwijaną.\relax }{figure.caption.19}{}}
\newlabel{fig.control_panel_activity.sensors}{{4.4c}{39}{Zakładka dostępu do sensorów.\relax }{figure.caption.19}{}}
\newlabel{sub@fig.control_panel_activity.sensors}{{c}{39}{Zakładka dostępu do sensorów.\relax }{figure.caption.19}{}}
\newlabel{fig.control_panel_activity.joystick}{{4.4d}{39}{Zakładka sterowania i wizualizacji IMU.\relax }{figure.caption.19}{}}
\newlabel{sub@fig.control_panel_activity.joystick}{{d}{39}{Zakładka sterowania i wizualizacji IMU.\relax }{figure.caption.19}{}}
\@writefile{lof}{\contentsline {figure}{\numberline {4.4}{\ignorespaces Wygl\IeC {\k a}d aktywno\IeC {\'s}ci \textit  {ControlPanelActivity}.\relax }}{39}{figure.caption.19}}
\newlabel{fig.control_panel_activity}{{4.4}{39}{Wygląd aktywności \textit {ControlPanelActivity}.\relax }{figure.caption.19}{}}
\citation{android_dp}
\@writefile{lof}{\contentsline {figure}{\numberline {4.5}{\ignorespaces Komunikat o utracie po\IeC {\l }\IeC {\k a}czenia z aplikacj\IeC {\k a} typu serwer.\relax }}{41}{figure.caption.20}}
\newlabel{fig.control_panel_activity.connection_lost}{{4.5}{41}{Komunikat o utracie połączenia z aplikacją typu serwer.\relax }{figure.caption.20}{}}
\@writefile{toc}{\contentsline {subsection}{\numberline {4.1.4}\textit  {DataVisualizationActivity}}{41}{subsection.4.1.4}}
\newlabel{subsec.aplikacja_kliencka.ekrany.data_visualization}{{4.1.4}{41}{\textit {DataVisualizationActivity}}{subsection.4.1.4}{}}
\newlabel{fig.data_visualization.laser}{{4.6a}{42}{Dane ze skanera laserowego.\relax }{figure.caption.21}{}}
\newlabel{sub@fig.data_visualization.laser}{{a}{42}{Dane ze skanera laserowego.\relax }{figure.caption.21}{}}
\newlabel{fig.data_visualization.sonar}{{4.6b}{42}{Dane z sonarów.\relax }{figure.caption.21}{}}
\newlabel{sub@fig.data_visualization.sonar}{{b}{42}{Dane z sonarów.\relax }{figure.caption.21}{}}
\newlabel{fig.data_visualization.sharp}{{4.6c}{42}{Dane z optycznych sensorów odległości firmy Sharp.\relax }{figure.caption.21}{}}
\newlabel{sub@fig.data_visualization.sharp}{{c}{42}{Dane z optycznych sensorów odległości firmy Sharp.\relax }{figure.caption.21}{}}
\newlabel{fig.data_visualization.sick}{{4.6d}{42}{Dane z sensorów obecności podłogi firmy SICK.\relax }{figure.caption.21}{}}
\newlabel{sub@fig.data_visualization.sick}{{d}{42}{Dane z sensorów obecności podłogi firmy SICK.\relax }{figure.caption.21}{}}
\@writefile{lof}{\contentsline {figure}{\numberline {4.6}{\ignorespaces Aktywno\IeC {\'s}\IeC {\'c} \textit  {DataVisualizationActivity} -- wizualizacja danych z sensor\IeC {\'o}w.\relax }}{42}{figure.caption.21}}
\newlabel{fig.data_visualization_activity}{{4.6}{42}{Aktywność \textit {DataVisualizationActivity} -- wizualizacja danych z sensorów.\relax }{figure.caption.21}{}}
\@writefile{toc}{\contentsline {section}{\numberline {4.2}Spos\IeC {\'o}b funkcjonowania aplikacji}{42}{section.4.2}}
\newlabel{sec.aplikacja_kliencka.funkcjonowanie}{{4.2}{42}{Sposób funkcjonowania aplikacji}{section.4.2}{}}
\citation{activity_lifecycle}
\citation{activity_lifecycle}
\@writefile{lof}{\contentsline {figure}{\numberline {4.7}{\ignorespaces Schemat w\IeC {\k a}tk\IeC {\'o}w aplikacji \textit  {BtClient}\relax }}{43}{figure.caption.22}}
\newlabel{fig.communication}{{4.7}{43}{Schemat wątków aplikacji \textit {BtClient}\relax }{figure.caption.22}{}}
\@writefile{lof}{\contentsline {figure}{\numberline {4.8}{\ignorespaces Cykl \IeC {\.z}ycia aktywno\IeC {\'s}ci w systemie Android \cite  {activity_lifecycle}.\relax }}{43}{figure.caption.23}}
\newlabel{fig.activity_lifecycle}{{4.8}{43}{Cykl życia aktywności w systemie Android \cite {activity_lifecycle}.\relax }{figure.caption.23}{}}
\@writefile{toc}{\contentsline {chapter}{\numberline {5}Opis instalacji oprogramowania}{45}{chapter.5}}
\@writefile{lof}{\addvspace {10\p@ }}
\@writefile{lot}{\addvspace {10\p@ }}
\newlabel{cht.instalacja}{{5}{45}{Opis instalacji oprogramowania}{chapter.5}{}}
\@writefile{toc}{\contentsline {section}{\numberline {5.1}Aplikacja typu serwer}{45}{section.5.1}}
\newlabel{sec.instalacja.serwer}{{5.1}{45}{Aplikacja typu serwer}{section.5.1}{}}
\@writefile{toc}{\contentsline {subsection}{\numberline {5.1.1}Instalacja wymaganych bibliotek}{45}{subsection.5.1.1}}
\newlabel{subsec.instalacja.serwer.biblioteki}{{5.1.1}{45}{Instalacja wymaganych bibliotek}{subsection.5.1.1}{}}
\@writefile{toc}{\contentsline {subsection}{\numberline {5.1.2}Konfiguracja adaptera Bluetooth}{46}{subsection.5.1.2}}
\newlabel{subsec.instalacja.serwer.bluetooth}{{5.1.2}{46}{Konfiguracja adaptera Bluetooth}{subsection.5.1.2}{}}
\@writefile{toc}{\contentsline {subsection}{\numberline {5.1.3}Dodawanie paczki \textit  {bluetooth\textunderscore server} do \IeC {\'s}rodowiska ROS}{47}{subsection.5.1.3}}
\newlabel{subsec.instalacja.serwer.paczka}{{5.1.3}{47}{Dodawanie paczki \textit {bluetooth\textunderscore server} do środowiska ROS}{subsection.5.1.3}{}}
\@writefile{toc}{\contentsline {section}{\numberline {5.2}Aplikacja typu klient}{48}{section.5.2}}
\newlabel{sec.instalacja.klient}{{5.2}{48}{Aplikacja typu klient}{section.5.2}{}}
\newlabel{fig.ustawienia.nieznane_zrodla}{{5.1a}{48}{Instalacji z nieznanych źródeł.\relax }{figure.caption.24}{}}
\newlabel{sub@fig.ustawienia.nieznane_zrodla}{{a}{48}{Instalacji z nieznanych źródeł.\relax }{figure.caption.24}{}}
\newlabel{fig.ustawienia.wersja}{{5.1b}{48}{Wersja systemu Android.\relax }{figure.caption.24}{}}
\newlabel{sub@fig.ustawienia.wersja}{{b}{48}{Wersja systemu Android.\relax }{figure.caption.24}{}}
\@writefile{lof}{\contentsline {figure}{\numberline {5.1}{\ignorespaces Ekrany ustawie\IeC {\'n} systemowych.\relax }}{48}{figure.caption.24}}
\newlabel{fig.ustawienia}{{5.1}{48}{Ekrany ustawień systemowych.\relax }{figure.caption.24}{}}
\newlabel{fig.instalacja.btclient_apk}{{5.2a}{49}{Plik instalacyjny \texttt {BtClient.apk}.\relax }{figure.caption.25}{}}
\newlabel{sub@fig.instalacja.btclient_apk}{{a}{49}{Plik instalacyjny \texttt {BtClient.apk}.\relax }{figure.caption.25}{}}
\newlabel{fig.instalacja.potwierdzenie}{{5.2b}{49}{Potwierdzenie chęci instalacji.\relax }{figure.caption.25}{}}
\newlabel{sub@fig.instalacja.potwierdzenie}{{b}{49}{Potwierdzenie chęci instalacji.\relax }{figure.caption.25}{}}
\newlabel{fig.instalacja.instalacja}{{5.2c}{49}{Instalowanie aplikacji.\relax }{figure.caption.25}{}}
\newlabel{sub@fig.instalacja.instalacja}{{c}{49}{Instalowanie aplikacji.\relax }{figure.caption.25}{}}
\newlabel{fig.instalacja.zakonczono}{{5.2d}{49}{Pomyślne zakończenie instalacji.\relax }{figure.caption.25}{}}
\newlabel{sub@fig.instalacja.zakonczono}{{d}{49}{Pomyślne zakończenie instalacji.\relax }{figure.caption.25}{}}
\@writefile{lof}{\contentsline {figure}{\numberline {5.2}{\ignorespaces Intalacja aplikacji \textit  {BtClient} z pliku instalacyjnego.\relax }}{49}{figure.caption.25}}
\newlabel{fig.instalacja}{{5.2}{49}{Intalacja aplikacji \textit {BtClient} z pliku instalacyjnego.\relax }{figure.caption.25}{}}
\@writefile{toc}{\contentsline {chapter}{\numberline {6}Podsumowanie}{51}{chapter.6}}
\@writefile{lof}{\addvspace {10\p@ }}
\@writefile{lot}{\addvspace {10\p@ }}
\newlabel{cht.wnioski}{{6}{51}{Podsumowanie}{chapter.6}{}}
\citation{bluetooth_5}
\bibstyle{plain}
\bibdata{bibliography.bib}
\bibcite{android_6_bt_changes}{1}
\bibcite{bluetooth_5}{2}
\bibcite{os_market_share}{3}
\bibcite{android_versions}{4}
\bibcite{ros_introduction}{5}
\bibcite{activity_lifecycle}{6}
\bibcite{android_dp}{7}
\bibcite{bluetooth}{8}
\bibcite{android_nowe_wyzwania}{9}
\bibcite{jav_podstawy}{10}
\bibcite{ros}{11}
\bibcite{android_w_praktyce}{12}
\citation{*}
\@writefile{toc}{\contentsline {chapter}{Bibliografia}{53}{section*.26}}
\citation{os_market_share}
\citation{android_versions}
\citation{activity_lifecycle}
\@writefile{toc}{\contentsline {chapter}{Spis rysunk\IeC {\'o}w}{54}{section*.28}}
